<?xml version="1.0" encoding="UTF-8" standalone="no"?>
<!-- Created with Inkscape (http://www.inkscape.org/) -->

<svg
   xmlns:dc="http://purl.org/dc/elements/1.1/"
   xmlns:cc="http://creativecommons.org/ns#"
   xmlns:rdf="http://www.w3.org/1999/02/22-rdf-syntax-ns#"
   xmlns:svg="http://www.w3.org/2000/svg"
   xmlns="http://www.w3.org/2000/svg"
   xmlns:sodipodi="http://sodipodi.sourceforge.net/DTD/sodipodi-0.dtd"
   xmlns:inkscape="http://www.inkscape.org/namespaces/inkscape"
   width="3107.6567"
   height="1307.7395"
   id="svg2"
   version="1.1"
   inkscape:version="0.48.4 r9939"
   sodipodi:docname="extrapolation.pdf">
  <defs
     id="defs4">
    <marker
       inkscape:stockid="Arrow1Mend"
       orient="auto"
       refY="0"
       refX="0"
       id="Arrow1Mend"
       style="overflow:visible">
      <path
         id="path3786"
         d="M 0,0 5,-5 -12.5,0 5,5 0,0 z"
         style="fill-rule:evenodd;stroke:#000000;stroke-width:1pt"
         transform="matrix(-0.4,0,0,-0.4,-4,0)"
         inkscape:connector-curvature="0" />
    </marker>
    <marker
       inkscape:stockid="Arrow1Send"
       orient="auto"
       refY="0"
       refX="0"
       id="Arrow1Send"
       style="overflow:visible">
      <path
         id="path3792"
         d="M 0,0 5,-5 -12.5,0 5,5 0,0 z"
         style="fill-rule:evenodd;stroke:#000000;stroke-width:1pt"
         transform="matrix(-0.2,0,0,-0.2,-1.2,0)"
         inkscape:connector-curvature="0" />
    </marker>
    <marker
       inkscape:stockid="Arrow1Mend"
       orient="auto"
       refY="0"
       refX="0"
       id="Arrow1Mend-3"
       style="overflow:visible">
      <path
         inkscape:connector-curvature="0"
         id="path3786-6"
         d="M 0,0 5,-5 -12.5,0 5,5 0,0 z"
         style="fill-rule:evenodd;stroke:#000000;stroke-width:1pt"
         transform="matrix(-0.4,0,0,-0.4,-4,0)" />
    </marker>
    <marker
       inkscape:stockid="Arrow1Mend"
       orient="auto"
       refY="0"
       refX="0"
       id="Arrow1Mend-7"
       style="overflow:visible">
      <path
         inkscape:connector-curvature="0"
         id="path3786-65"
         d="M 0,0 5,-5 -12.5,0 5,5 0,0 z"
         style="fill-rule:evenodd;stroke:#000000;stroke-width:1pt"
         transform="matrix(-0.4,0,0,-0.4,-4,0)" />
    </marker>
    <marker
       inkscape:stockid="Arrow1Mend"
       orient="auto"
       refY="0"
       refX="0"
       id="Arrow1Mend-0"
       style="overflow:visible">
      <path
         inkscape:connector-curvature="0"
         id="path3786-7"
         d="M 0,0 5,-5 -12.5,0 5,5 0,0 z"
         style="fill-rule:evenodd;stroke:#000000;stroke-width:1pt"
         transform="matrix(-0.4,0,0,-0.4,-4,0)" />
    </marker>
    <marker
       inkscape:stockid="Arrow1Mend"
       orient="auto"
       refY="0"
       refX="0"
       id="Arrow1Mend-02"
       style="overflow:visible">
      <path
         inkscape:connector-curvature="0"
         id="path3786-0"
         d="M 0,0 5,-5 -12.5,0 5,5 0,0 z"
         style="fill-rule:evenodd;stroke:#000000;stroke-width:1pt"
         transform="matrix(-0.4,0,0,-0.4,-4,0)" />
    </marker>
    <marker
       inkscape:stockid="Arrow1Mend"
       orient="auto"
       refY="0"
       refX="0"
       id="Arrow1Mend-06"
       style="overflow:visible">
      <path
         inkscape:connector-curvature="0"
         id="path3786-08"
         d="M 0,0 5,-5 -12.5,0 5,5 0,0 z"
         style="fill-rule:evenodd;stroke:#000000;stroke-width:1pt"
         transform="matrix(-0.4,0,0,-0.4,-4,0)" />
    </marker>
    <marker
       inkscape:stockid="Arrow1Mend"
       orient="auto"
       refY="0"
       refX="0"
       id="Arrow1Mend-4"
       style="overflow:visible">
      <path
         inkscape:connector-curvature="0"
         id="path3786-07"
         d="M 0,0 5,-5 -12.5,0 5,5 0,0 z"
         style="fill-rule:evenodd;stroke:#000000;stroke-width:1pt"
         transform="matrix(-0.4,0,0,-0.4,-4,0)" />
    </marker>
    <marker
       inkscape:stockid="Arrow1Mend"
       orient="auto"
       refY="0"
       refX="0"
       id="Arrow1Mend-9"
       style="overflow:visible">
      <path
         inkscape:connector-curvature="0"
         id="path3786-77"
         d="M 0,0 5,-5 -12.5,0 5,5 0,0 z"
         style="fill-rule:evenodd;stroke:#000000;stroke-width:1pt"
         transform="matrix(-0.4,0,0,-0.4,-4,0)" />
    </marker>
    <marker
       inkscape:stockid="Arrow1Mend"
       orient="auto"
       refY="0"
       refX="0"
       id="Arrow1Mend-8"
       style="overflow:visible">
      <path
         inkscape:connector-curvature="0"
         id="path3786-9"
         d="M 0,0 5,-5 -12.5,0 5,5 0,0 z"
         style="fill-rule:evenodd;stroke:#000000;stroke-width:1pt"
         transform="matrix(-0.4,0,0,-0.4,-4,0)" />
    </marker>
    <marker
       inkscape:stockid="Arrow1Mend"
       orient="auto"
       refY="0"
       refX="0"
       id="Arrow1Mend-40"
       style="overflow:visible">
      <path
         id="path3786-01"
         d="M 0,0 5,-5 -12.5,0 5,5 0,0 z"
         style="fill-rule:evenodd;stroke:#000000;stroke-width:1pt"
         transform="matrix(-0.4,0,0,-0.4,-4,0)"
         inkscape:connector-curvature="0" />
    </marker>
    <marker
       inkscape:stockid="Arrow1Mend"
       orient="auto"
       refY="0"
       refX="0"
       id="Arrow1Mend-95"
       style="overflow:visible">
      <path
         id="path3786-4"
         d="M 0,0 5,-5 -12.5,0 5,5 0,0 z"
         style="fill-rule:evenodd;stroke:#000000;stroke-width:1pt"
         transform="matrix(-0.4,0,0,-0.4,-4,0)"
         inkscape:connector-curvature="0" />
    </marker>
    <marker
       inkscape:stockid="Arrow1Send"
       orient="auto"
       refY="0"
       refX="0"
       id="Arrow1Send-7"
       style="overflow:visible">
      <path
         id="path3792-4"
         d="M 0,0 5,-5 -12.5,0 5,5 0,0 z"
         style="fill-rule:evenodd;stroke:#000000;stroke-width:1pt"
         transform="matrix(-0.2,0,0,-0.2,-1.2,0)"
         inkscape:connector-curvature="0" />
    </marker>
    <marker
       inkscape:stockid="Arrow1Send"
       orient="auto"
       refY="0"
       refX="0"
       id="Arrow1Send-3"
       style="overflow:visible">
      <path
         id="path3792-9"
         d="M 0,0 5,-5 -12.5,0 5,5 0,0 z"
         style="fill-rule:evenodd;stroke:#000000;stroke-width:1pt"
         transform="matrix(-0.2,0,0,-0.2,-1.2,0)"
         inkscape:connector-curvature="0" />
    </marker>
    <marker
       inkscape:stockid="Arrow1Mend"
       orient="auto"
       refY="0"
       refX="0"
       id="Arrow1Mend-43"
       style="overflow:visible">
      <path
         id="path3786-3"
         d="M 0,0 5,-5 -12.5,0 5,5 0,0 z"
         style="fill-rule:evenodd;stroke:#000000;stroke-width:1pt"
         transform="matrix(-0.4,0,0,-0.4,-4,0)"
         inkscape:connector-curvature="0" />
    </marker>
    <marker
       inkscape:stockid="Arrow1Mend"
       orient="auto"
       refY="0"
       refX="0"
       id="Arrow1Mend-1"
       style="overflow:visible">
      <path
         id="path3786-2"
         d="M 0,0 5,-5 -12.5,0 5,5 0,0 z"
         style="fill-rule:evenodd;stroke:#000000;stroke-width:1pt"
         transform="matrix(-0.4,0,0,-0.4,-4,0)"
         inkscape:connector-curvature="0" />
    </marker>
    <marker
       inkscape:stockid="Arrow1Mend"
       orient="auto"
       refY="0"
       refX="0"
       id="Arrow1Mend-13"
       style="overflow:visible">
      <path
         id="path3786-1"
         d="M 0,0 5,-5 -12.5,0 5,5 0,0 z"
         style="fill-rule:evenodd;stroke:#000000;stroke-width:1pt"
         transform="matrix(-0.4,0,0,-0.4,-4,0)"
         inkscape:connector-curvature="0" />
    </marker>
  </defs>
  <sodipodi:namedview
     id="base"
     pagecolor="#ffffff"
     bordercolor="#666666"
     borderopacity="1.0"
     inkscape:pageopacity="0.0"
     inkscape:pageshadow="2"
     inkscape:zoom="0.45254834"
     inkscape:cx="1630.8293"
     inkscape:cy="787.64119"
     inkscape:document-units="px"
     inkscape:current-layer="layer1"
     showgrid="false"
     inkscape:snap-to-guides="true"
     inkscape:snap-object-midpoints="false"
     inkscape:object-nodes="true"
     inkscape:snap-center="false"
     inkscape:snap-midpoints="true"
     inkscape:window-width="1920"
     inkscape:window-height="1017"
     inkscape:window-x="-8"
     inkscape:window-y="-8"
     inkscape:window-maximized="1"
     fit-margin-top="0"
     fit-margin-left="0"
     fit-margin-right="0"
     fit-margin-bottom="0" />
  <metadata
     id="metadata7">
    <rdf:RDF>
      <cc:Work
         rdf:about="">
        <dc:format>image/svg+xml</dc:format>
        <dc:type
           rdf:resource="http://purl.org/dc/dcmitype/StillImage" />
        <dc:title></dc:title>
      </cc:Work>
    </rdf:RDF>
  </metadata>
  <g
     inkscape:label="Layer 1"
     inkscape:groupmode="layer"
     id="layer1"
     transform="translate(283.97509,-239.39497)">
    <flowRoot
       xml:space="preserve"
       id="flowRoot3755"
       style="font-size:40px;font-style:normal;font-weight:normal;line-height:125%;letter-spacing:0px;word-spacing:0px;fill:#000000;fill-opacity:1;stroke:none;font-family:Sans"
       transform="translate(0,308.2677)"><flowRegion
         id="flowRegion3757"><rect
           id="rect3759"
           width="155.56349"
           height="90.913727"
           x="176.7767"
           y="235.98775" /></flowRegion><flowPara
         id="flowPara3761" /></flowRoot>    <g
       id="g4557">
      <rect
         y="354.8595"
         x="35.644073"
         height="179.80716"
         width="359.61432"
         id="rect2985"
         style="fill:#000000;fill-opacity:0;stroke:#000000;stroke-width:5;stroke-miterlimit:4;stroke-opacity:1;stroke-dasharray:none"
         ry="89.90358" />
      <flowRoot
         transform="matrix(1.0618296,0,0,1.0618296,-159.87686,310.72855)"
         style="font-size:40px;font-style:normal;font-weight:normal;text-align:center;line-height:125%;letter-spacing:0px;word-spacing:0px;text-anchor:middle;fill:#000000;fill-opacity:1;stroke:none;font-family:Sans"
         id="flowRoot3763"
         xml:space="preserve"><flowRegion
           id="flowRegion3765"><rect
             style="text-align:center;text-anchor:middle;fill:#000000;stroke:none"
             y="81.199127"
             x="247.14706"
             height="88.163345"
             width="210.82263"
             id="rect3767" /></flowRegion><flowPara
           id="flowPara3769"
           style="font-size:37.67082596px">Original flux spectrum</flowPara></flowRoot>    </g>
    <rect
       style="fill:#ace6ff;fill-opacity:1;stroke:#000000;stroke-width:5.09214067;stroke-miterlimit:4;stroke-opacity:1;stroke-dasharray:none"
       id="rect5666"
       width="2157.2627"
       height="1302.6473"
       x="663.70068"
       y="-1544.5884"
       ry="0"
       transform="scale(1,-1)" />
    <rect
       style="fill:#acb2ff;fill-opacity:1;stroke:#000000;stroke-width:2.09467649;stroke-miterlimit:4;stroke-opacity:1;stroke-dasharray:none"
       id="rect5666-9"
       width="569.05072"
       height="835.62604"
       x="2253.5835"
       y="-1544.1638"
       ry="0"
       transform="scale(1,-1)" />
    <g
       id="g4551">
      <path
         sodipodi:nodetypes="cc"
         inkscape:connector-curvature="0"
         id="path3771"
         d="m 395.25839,444.76308 320.6662,0"
         style="fill:none;stroke:#000000;stroke-width:5;stroke-linecap:butt;stroke-linejoin:miter;stroke-miterlimit:4;stroke-opacity:1;stroke-dasharray:none;marker-end:url(#Arrow1Mend)" />
      <text
         x="526.64423"
         y="430.79825"
         sodipodi:linespacing="125%"
         id="text4422"
         style="font-size:40px;font-style:normal;font-weight:normal;text-align:center;line-height:125%;letter-spacing:0px;word-spacing:0px;text-anchor:middle;fill:#000000;fill-opacity:1;stroke:none;font-family:Sans"
         xml:space="preserve"><tspan
           style="font-size:40px"
           y="430.79825"
           x="526.64423"
           id="tspan4424"
           sodipodi:role="line">Guess flux at</tspan><tspan
           style="font-size:40px"
           id="tspan4426"
           y="480.79825"
           x="526.64423"
           sodipodi:role="line">2.7 µm</tspan></text>
    </g>
    <g
       id="g4544"
       transform="translate(510,0)">
      <path
         transform="translate(14.274276,314.41519)"
         d="m 1095.1245,130.34789 c 0,50.95121 -99.2751,92.25534 -221.73711,92.25534 -122.46201,0 -221.73708,-41.30413 -221.73708,-92.25534 0,-50.951223 99.27507,-92.255345 221.73708,-92.255345 122.46201,0 221.73711,41.304122 221.73711,92.255345 z"
         sodipodi:ry="92.255341"
         sodipodi:rx="221.73708"
         sodipodi:cy="130.34789"
         sodipodi:cx="873.38739"
         id="path4463"
         style="fill:#000000;fill-opacity:0;stroke:#000000;stroke-width:5;stroke-miterlimit:4;stroke-opacity:1;stroke-dasharray:none"
         sodipodi:type="arc" />
      <flowRoot
         transform="matrix(1.0618296,0,0,1.0618296,437.70063,295.48794)"
         style="font-size:40px;font-style:normal;font-weight:normal;text-align:center;line-height:125%;letter-spacing:0px;word-spacing:0px;text-anchor:middle;fill:#000000;fill-opacity:1;stroke:none;font-family:Sans"
         id="flowRoot3763-2"
         xml:space="preserve"><flowRegion
           id="flowRegion3765-4"><rect
             style="text-align:center;text-anchor:middle;fill:#000000;stroke:none"
             y="81.199127"
             x="247.14706"
             height="204.70152"
             width="350.25223"
             id="rect3767-4" /></flowRegion><flowPara
           style="font-size:45.20499334px"
           id="flowPara3769-4">Fit 3rd order polynom </flowPara></flowRoot>    </g>
    <g
       id="g4537"
       transform="translate(417.35542,61.942625)">
      <rect
         y="292.91687"
         x="1382.4569"
         height="179.80716"
         width="359.61432"
         id="rect2985-9"
         style="fill:#000000;fill-opacity:0;stroke:#000000;stroke-width:5;stroke-miterlimit:4;stroke-opacity:1;stroke-dasharray:none" />
      <flowRoot
         transform="matrix(1.0618296,0,0,1.0618296,1143.8604,248.54179)"
         style="font-size:40px;font-style:normal;font-weight:normal;text-align:center;line-height:125%;letter-spacing:0px;word-spacing:0px;text-anchor:middle;fill:#000000;fill-opacity:1;stroke:none;font-family:Sans"
         id="flowRoot3763-7"
         xml:space="preserve"><flowRegion
           id="flowRegion3765-0"><rect
             style="text-align:center;text-anchor:middle;fill:#000000;stroke:none"
             y="81.199127"
             x="247.14706"
             height="100.64958"
             width="294.06418"
             id="rect3767-8" /></flowRegion><flowPara
           id="flowPara3769-3"
           style="font-size:37.67082596px">Continuum spectrum guess</flowPara></flowRoot>    </g>
    <path
       style="fill:none;stroke:#000000;stroke-width:5;stroke-linecap:butt;stroke-linejoin:miter;stroke-miterlimit:4;stroke-opacity:1;stroke-dasharray:none;marker-end:url(#Arrow1Mend)"
       d="m 1619.3987,444.76308 172.4468,0"
       id="path3771-6"
       inkscape:connector-curvature="0"
       sodipodi:nodetypes="cc" />
    <g
       transform="translate(1639.2133,-3.0273441e-7)"
       id="g4544-8">
      <path
         transform="translate(14.274276,314.41519)"
         d="m 1095.1245,130.34789 c 0,83.74312 -99.2751,151.63034 -221.73711,151.63034 -122.46201,0 -221.73708,-67.88722 -221.73708,-151.63034 0,-83.74313 99.27507,-151.630345 221.73708,-151.630345 122.46201,0 221.73711,67.887215 221.73711,151.630345 z"
         sodipodi:ry="151.63034"
         sodipodi:rx="221.73708"
         sodipodi:cy="130.34789"
         sodipodi:cx="873.38739"
         id="path4463-9"
         style="fill:#000000;fill-opacity:0;stroke:#000000;stroke-width:5;stroke-miterlimit:4;stroke-opacity:1;stroke-dasharray:none"
         sodipodi:type="arc" />
      <flowRoot
         transform="matrix(1.0618296,0,0,1.0618296,437.70063,295.48794)"
         style="font-size:40px;font-style:normal;font-weight:normal;text-align:center;line-height:125%;letter-spacing:0px;word-spacing:0px;text-anchor:middle;fill:#000000;fill-opacity:1;stroke:none;font-family:Sans"
         id="flowRoot3763-2-2"
         xml:space="preserve"><flowRegion
           id="flowRegion3765-4-2"><rect
             style="text-align:center;text-anchor:middle;fill:#000000;stroke:none"
             y="81.199127"
             x="247.14706"
             height="204.70152"
             width="350.25223"
             id="rect3767-4-8" /></flowRegion><flowPara
           style="font-size:45.2049942px"
           id="flowPara3769-4-6">Calculate optical depth</flowPara></flowRoot>    </g>
    <path
       style="fill:none;stroke:#000000;stroke-width:5;stroke-linecap:butt;stroke-linejoin:miter;stroke-miterlimit:4;stroke-opacity:1;stroke-dasharray:none;marker-end:url(#Arrow1Mend)"
       d="m 2159.4267,444.76307 137.9772,0"
       id="path3771-6-5"
       inkscape:connector-curvature="0"
       sodipodi:nodetypes="cc" />
    <g
       id="g4537-9"
       transform="translate(964.6109,501.60387)">
      <rect
         y="292.91687"
         x="1382.4569"
         height="179.80716"
         width="359.61432"
         id="rect2985-9-6"
         style="fill:#000000;fill-opacity:0;stroke:#000000;stroke-width:5;stroke-miterlimit:4;stroke-opacity:1;stroke-dasharray:none" />
      <flowRoot
         transform="matrix(1.0618296,0,0,1.0618296,1096.1001,239.44976)"
         style="font-size:40px;font-style:normal;font-weight:normal;text-align:center;line-height:125%;letter-spacing:0px;word-spacing:0px;text-anchor:middle;fill:#000000;fill-opacity:1;stroke:none;font-family:Sans"
         id="flowRoot3763-7-1"
         xml:space="preserve"><flowRegion
           id="flowRegion3765-0-4"><rect
             style="text-align:center;text-anchor:middle;fill:#000000;stroke:none"
             y="81.199127"
             x="247.14706"
             height="158.91867"
             width="383.54886"
             id="rect3767-8-0" /></flowRegion><flowPara
           id="flowPara3769-3-5"
           style="font-size:37.67082596px">Optical depth spectrum</flowPara></flowRoot>    </g>
    <path
       style="fill:none;stroke:#000000;stroke-width:5;stroke-linecap:butt;stroke-linejoin:miter;stroke-miterlimit:4;stroke-opacity:1;stroke-dasharray:none;marker-end:url(#Arrow1Mend)"
       d="m 2526.875,596.39342 0,189.53357"
       id="path3771-6-9"
       inkscape:connector-curvature="0"
       sodipodi:nodetypes="cc" />
    <g
       transform="translate(1639.2133,804.47411)"
       id="g4544-8-2">
      <path
         transform="translate(14.274276,314.41519)"
         d="m 1095.1245,130.34789 c 0,83.74312 -99.2751,151.63034 -221.73711,151.63034 -122.46201,0 -221.73708,-67.88722 -221.73708,-151.63034 0,-83.74313 99.27507,-151.630345 221.73708,-151.630345 122.46201,0 221.73711,67.887215 221.73711,151.630345 z"
         sodipodi:ry="151.63034"
         sodipodi:rx="221.73708"
         sodipodi:cy="130.34789"
         sodipodi:cx="873.38739"
         id="path4463-9-4"
         style="fill:#000000;fill-opacity:0;stroke:#000000;stroke-width:5;stroke-miterlimit:4;stroke-opacity:1;stroke-dasharray:none"
         sodipodi:type="arc" />
      <flowRoot
         transform="matrix(1.0618296,0,0,1.0618296,437.31976,263.95401)"
         style="font-size:40px;font-style:normal;font-weight:normal;text-align:center;line-height:125%;letter-spacing:0px;word-spacing:0px;text-anchor:middle;fill:#000000;fill-opacity:1;stroke:none;font-family:Sans"
         id="flowRoot3763-2-2-1"
         xml:space="preserve"><flowRegion
           id="flowRegion3765-4-2-0"><rect
             style="text-align:center;text-anchor:middle;fill:#000000;stroke:none"
             y="81.199127"
             x="247.14706"
             height="204.70152"
             width="350.25223"
             id="rect3767-4-8-0" /></flowRegion><flowPara
           style="font-size:45.2049942px"
           id="flowPara3769-4-6-5">Fit laboratory spectrum to OD spectrum</flowPara></flowRoot>    </g>
    <path
       style="fill:none;stroke:#000000;stroke-width:5;stroke-linecap:butt;stroke-linejoin:miter;stroke-miterlimit:4;stroke-opacity:1;stroke-dasharray:none;marker-end:url(#Arrow1Mend)"
       d="m 2526.875,974.3279 0,115.545"
       id="path3771-6-9-2"
       inkscape:connector-curvature="0"
       sodipodi:nodetypes="cc" />
    <g
       id="g5426"
       transform="translate(16.820039,0)">
      <rect
         transform="matrix(-0.70710678,-0.70710678,0.70710678,-0.70710678,0,0)"
         ry="0"
         rx="0"
         y="-421.84988"
         x="-1677.1931"
         height="332.35483"
         width="332.35483"
         id="rect5013"
         style="fill:#000000;fill-opacity:0;stroke:#000000;stroke-width:5.78008366;stroke-miterlimit:4;stroke-opacity:1;stroke-dasharray:none" />
      <flowRoot
         xml:space="preserve"
         id="flowRoot3763-2-2-1-7"
         style="font-size:40px;font-style:normal;font-weight:normal;text-align:center;line-height:125%;letter-spacing:0px;word-spacing:0px;text-anchor:middle;fill:#000000;fill-opacity:1;stroke:none;font-family:Sans"
         transform="matrix(1.0618296,0,0,1.0618296,460.72409,1109.8208)"><flowRegion
           id="flowRegion3765-4-2-0-8"><rect
             id="rect3767-4-8-0-9"
             width="306.55042"
             height="111.05477"
             x="247.14706"
             y="81.199127"
             style="text-align:center;text-anchor:middle;fill:#000000;stroke:none" /></flowRegion><flowPara
           id="flowPara3769-4-6-5-0"
           style="font-size:45.2049942px">Best blue wing fit found?</flowPara></flowRoot>    </g>
    <path
       style="fill:none;stroke:#000000;stroke-width:5;stroke-linecap:butt;stroke-linejoin:miter;stroke-miterlimit:4;stroke-opacity:1;stroke-dasharray:none;marker-end:url(#Arrow1Mend)"
       d="m 2305.1379,1249.2372 -291.3466,0"
       id="path3771-6-5-5"
       inkscape:connector-curvature="0"
       sodipodi:nodetypes="cc" />
    <path
       style="fill:none;stroke:#000000;stroke-width:5;stroke-linecap:butt;stroke-linejoin:miter;stroke-miterlimit:4;stroke-opacity:1;stroke-dasharray:none;marker-end:url(#Arrow1Mend)"
       d="m 904.48175,1014.2268 0,-122.43947"
       id="path3771-6-9-3"
       inkscape:connector-curvature="0"
       sodipodi:nodetypes="cc" />
    <path
       style="fill:none;stroke:#000000;stroke-width:45.90000153;stroke-linecap:butt;stroke-linejoin:miter;stroke-miterlimit:4;stroke-opacity:1;stroke-dasharray:none;marker-end:url(#Arrow1Send)"
       d="m -261.02509,444.76308 214.373776,-2e-5"
       id="path3771-6-55"
       inkscape:connector-curvature="0"
       sodipodi:nodetypes="cc" />
    <g
       transform="translate(16.820082,340.62454)"
       id="g4544-8-2-3">
      <path
         transform="matrix(1,0,0,0.82170633,14.274276,310.62066)"
         d="m 1095.1245,130.34789 c 0,83.74312 -99.2751,151.63034 -221.73711,151.63034 -122.46201,0 -221.73708,-67.88722 -221.73708,-151.63034 0,-83.74313 99.27507,-151.630345 221.73708,-151.630345 122.46201,0 221.73711,67.887215 221.73711,151.630345 z"
         sodipodi:ry="151.63034"
         sodipodi:rx="221.73708"
         sodipodi:cy="130.34789"
         sodipodi:cx="873.38739"
         id="path4463-9-4-9"
         style="fill:#000000;fill-opacity:0;stroke:#000000;stroke-width:5;stroke-miterlimit:4;stroke-opacity:1;stroke-dasharray:none"
         sodipodi:type="arc" />
      <flowRoot
         transform="matrix(1.0618296,0,0,1.0618296,437.31976,263.95401)"
         style="font-size:40px;font-style:normal;font-weight:normal;text-align:center;line-height:125%;letter-spacing:0px;word-spacing:0px;text-anchor:middle;fill:#000000;fill-opacity:1;stroke:none;font-family:Sans"
         id="flowRoot3763-2-2-1-4"
         xml:space="preserve"><flowRegion
           id="flowRegion3765-4-2-0-7"><rect
             style="text-align:center;text-anchor:middle;fill:#000000;stroke:none"
             y="81.199127"
             x="247.14706"
             height="204.70152"
             width="350.25223"
             id="rect3767-4-8-0-1" /></flowRegion><flowPara
           style="font-size:45.2049942px"
           id="flowPara3769-4-6-5-1">Adjust 2.7 µm flux estimate</flowPara></flowRoot>    </g>
    <path
       style="fill:none;stroke:#000000;stroke-width:5;stroke-linecap:butt;stroke-linejoin:miter;stroke-miterlimit:4;stroke-opacity:1;stroke-dasharray:none;marker-end:url(#Arrow1Mend)"
       d="m 904.48175,633.75727 0,-88.1451"
       id="path3771-6-9-3-6"
       inkscape:connector-curvature="0"
       sodipodi:nodetypes="cc" />
    <text
       x="963.47394"
       y="982.75195"
       sodipodi:linespacing="125%"
       id="text4422-1"
       style="font-size:40px;font-style:normal;font-weight:normal;text-align:center;line-height:125%;letter-spacing:0px;word-spacing:0px;text-anchor:middle;fill:#000000;fill-opacity:1;stroke:none;font-family:Sans"
       xml:space="preserve"><tspan
         style="font-size:48px"
         id="tspan4426-1"
         y="982.75195"
         x="963.47394"
         sodipodi:role="line">NO</tspan></text>
    <g
       transform="translate(0,804.47411)"
       id="g4557-8">
      <rect
         y="354.8595"
         x="35.644073"
         height="179.80716"
         width="359.61432"
         id="rect2985-3"
         style="fill:#000000;fill-opacity:0;stroke:#000000;stroke-width:5;stroke-miterlimit:4;stroke-opacity:1;stroke-dasharray:none"
         ry="89.90358" />
      <flowRoot
         transform="matrix(1.0618296,0,0,1.0618296,-188.11584,310.71879)"
         style="font-size:40px;font-style:normal;font-weight:normal;text-align:center;line-height:125%;letter-spacing:0px;word-spacing:0px;text-anchor:middle;fill:#000000;fill-opacity:1;stroke:none;font-family:Sans"
         id="flowRoot3763-1"
         xml:space="preserve"><flowRegion
           id="flowRegion3765-9"><rect
             style="text-align:center;text-anchor:middle;fill:#000000;stroke:none"
             y="81.199127"
             x="247.14706"
             height="86.082306"
             width="267.01068"
             id="rect3767-3" /></flowRegion><flowPara
           id="flowPara3769-2"
           style="font-size:37.67082596px">Best-fit optical depth spectrum</flowPara></flowRoot>    </g>
    <path
       style="fill:none;stroke:#000000;stroke-width:5;stroke-linecap:butt;stroke-linejoin:miter;stroke-miterlimit:4;stroke-opacity:1;stroke-dasharray:none;marker-end:url(#Arrow1Mend)"
       d="m 669.47138,1249.2372 -265.61924,0"
       id="path3771-6-90"
       inkscape:connector-curvature="0"
       sodipodi:nodetypes="cc" />
    <text
       x="511.58673"
       y="1242.8843"
       sodipodi:linespacing="125%"
       id="text4422-1-1"
       style="font-size:40px;font-style:normal;font-weight:normal;text-align:center;line-height:125%;letter-spacing:0px;word-spacing:0px;text-anchor:middle;fill:#000000;fill-opacity:1;stroke:none;font-family:Sans"
       xml:space="preserve"><tspan
         style="font-size:48px"
         id="tspan4426-1-5"
         y="1242.8843"
         x="511.58673"
         sodipodi:role="line">YES</tspan></text>
    <path
       style="fill:none;stroke:#000000;stroke-width:45.90000153;stroke-linecap:butt;stroke-linejoin:miter;stroke-miterlimit:4;stroke-opacity:1;stroke-dasharray:none;marker-end:url(#Arrow1Send)"
       d="m 33.806189,1249.2372 -214.373779,0"
       id="path3771-6-55-7"
       inkscape:connector-curvature="0"
       sodipodi:nodetypes="cc" />
    <text
       xml:space="preserve"
       style="font-size:40px;font-style:normal;font-weight:normal;line-height:125%;letter-spacing:0px;word-spacing:0px;fill:#000000;fill-opacity:1;stroke:none;font-family:Sans"
       x="2321.1094"
       y="1509.0126"
       id="text5686"
       sodipodi:linespacing="125%"><tspan
         sodipodi:role="line"
         id="tspan5688"
         x="2321.1094"
         y="1509.0126"
         style="font-size:64px">Inner fit loop</tspan></text>
    <text
       xml:space="preserve"
       style="font-size:40px;font-style:normal;font-weight:normal;line-height:125%;letter-spacing:0px;word-spacing:0px;fill:#000000;fill-opacity:1;stroke:none;font-family:Sans"
       x="1723.3843"
       y="902.08057"
       id="text5686-6"
       sodipodi:linespacing="125%"><tspan
         sodipodi:role="line"
         id="tspan5688-8"
         x="1723.3843"
         y="902.08057"
         style="font-size:64px">Outer fit loop</tspan></text>
    <g
       id="g4537-3"
       transform="translate(-657.78232,61.942642)">
      <rect
         y="292.91687"
         x="1382.4569"
         height="179.80716"
         width="359.61432"
         id="rect2985-9-2"
         style="fill:#000000;fill-opacity:0;stroke:#000000;stroke-width:5;stroke-miterlimit:4;stroke-opacity:1;stroke-dasharray:none" />
      <flowRoot
         transform="matrix(1.0618296,0,0,1.0618296,1096.1001,239.44976)"
         style="font-size:40px;font-style:normal;font-weight:normal;text-align:center;line-height:125%;letter-spacing:0px;word-spacing:0px;text-anchor:middle;fill:#000000;fill-opacity:1;stroke:none;font-family:Sans"
         id="flowRoot3763-7-7"
         xml:space="preserve"><flowRegion
           id="flowRegion3765-0-1"><rect
             style="text-align:center;text-anchor:middle;fill:#000000;stroke:none"
             y="81.199127"
             x="247.14706"
             height="158.91867"
             width="383.54886"
             id="rect3767-8-3" /></flowRegion><flowPara
           id="flowPara3769-3-9"
           style="font-size:37.67082596px">Extrapolated continuum flux</flowPara></flowRoot>    </g>
    <path
       style="fill:none;stroke:#000000;stroke-width:5;stroke-linecap:butt;stroke-linejoin:miter;stroke-miterlimit:4;stroke-opacity:1;stroke-dasharray:none;marker-end:url(#Arrow1Mend)"
       d="m 1084.289,444.76309 82.2443,-10e-6"
       id="path3771-6-3"
       inkscape:connector-curvature="0"
       sodipodi:nodetypes="cc" />
    <g
       id="g4537-5"
       transform="translate(263.72001,866.41675)">
      <rect
         y="292.91687"
         x="1382.4569"
         height="179.80716"
         width="359.61432"
         id="rect2985-9-5"
         style="fill:#000000;fill-opacity:0;stroke:#000000;stroke-width:5;stroke-miterlimit:4;stroke-opacity:1;stroke-dasharray:none" />
      <flowRoot
         transform="matrix(1.0618296,0,0,1.0618296,1096.1001,239.44976)"
         style="font-size:40px;font-style:normal;font-weight:normal;text-align:center;line-height:125%;letter-spacing:0px;word-spacing:0px;text-anchor:middle;fill:#000000;fill-opacity:1;stroke:none;font-family:Sans"
         id="flowRoot3763-7-19"
         xml:space="preserve"><flowRegion
           id="flowRegion3765-0-8"><rect
             style="text-align:center;text-anchor:middle;fill:#000000;stroke:none"
             y="81.199127"
             x="247.14706"
             height="158.91867"
             width="383.54886"
             id="rect3767-8-6" /></flowRegion><flowPara
           id="flowPara3769-3-7"
           style="font-size:37.67082596px">Fitted laboratory spectrum</flowPara></flowRoot>    </g>
    <path
       style="fill:none;stroke:#000000;stroke-width:5;stroke-linecap:butt;stroke-linejoin:miter;stroke-miterlimit:4;stroke-opacity:1;stroke-dasharray:none;marker-end:url(#Arrow1Mend)"
       d="m 1646.1769,1249.2372 -506.6848,0"
       id="path3771-6-5-5-2"
       inkscape:connector-curvature="0"
       sodipodi:nodetypes="cc" />
    <text
       x="1391.5142"
       y="1238.0653"
       sodipodi:linespacing="125%"
       id="text4422-7"
       style="font-size:40px;font-style:normal;font-weight:normal;text-align:center;line-height:125%;letter-spacing:0px;word-spacing:0px;text-anchor:middle;fill:#000000;fill-opacity:1;stroke:none;font-family:Sans"
       xml:space="preserve"><tspan
         style="font-size:40px;font-weight:normal;-inkscape-font-specification:Sans"
         id="tspan4426-5"
         y="1238.0653"
         x="1391.5142"
         sodipodi:role="line">Calculate chi squared</tspan><tspan
         style="font-size:40px;font-weight:normal;-inkscape-font-specification:Sans"
         y="1278.0653"
         x="1391.5142"
         sodipodi:role="line"
         id="tspan3433">at blue wing</tspan></text>
  </g>
</svg>
